npc/make_tracing_c/logs/vlt_dump.vcd
$version Generated by VerilatedVcd $end
$date Wed Mar 16 01:35:11 2022 $end
$timescale 1ps $end

 $scope module TOP $end
  $var wire  1 # clk $end
  $var wire 40 , in_quad [39:0] $end
  $var wire  2 + in_small [1:0] $end
  $var wire 70 . in_wide [69:0] $end
  $var wire 40 & out_quad [39:0] $end
  $var wire  2 % out_small [1:0] $end
  $var wire 70 ( out_wide [69:0] $end
  $var wire  1 $ reset_l $end
  $scope module top $end
   $var wire  1 # clk $end
   $var wire 40 , in_quad [39:0] $end
   $var wire  2 + in_small [1:0] $end
   $var wire 70 . in_wide [69:0] $end
   $var wire 40 & out_quad [39:0] $end
   $var wire  2 % out_small [1:0] $end
   $var wire 70 ( out_wide [69:0] $end
   $var wire  1 $ reset_l $end
   $scope module sub $end
    $var wire  1 # clk $end
    $var wire 32 1 count_c [31:0] $end
    $var wire  1 $ reset_l $end
   $upscope $end
  $upscope $end
 $upscope $end
$enddefinitions $end


#1
1#
1$
b10 %
b0000000000000000000000000001001000110101 &
b0000110010001000100010001000100010001000010001000100010001000100010010 (
b01 +
b0000000000000000000000000001001000110100 ,
b0000110010001000100010001000100010001000010001000100010001000100010001 .
b01011010000110111000010100011110 1
#2
0#
0$
b00 %
b0000000000000000000000000000000000000000 &
b0000000000000000000000000000000000000000000000000000000000000000000000 (
b0000000000000000000000000001001001000110 ,
#3
1#
b00000000000000000000000000000000 1
#4
0#
b0000000000000000000000000001001001011000 ,
#5
1#
#6
0#
b0000000000000000000000000001001001101010 ,
#7
1#
#8
0#
b0000000000000000000000000001001001111100 ,
#9
1#
#10
0#
1$
b10 %
b0000000000000000000000000001001010001111 &
b0000110010001000100010001000100010001000010001000100010001000100010010 (
b0000000000000000000000000001001010001110 ,
#11
1#
b00000000000000000000000000000001 1
#12
0#
b0000000000000000000000000001001010100001 &
b0000000000000000000000000001001010100000 ,
#13
1#
b00000000000000000000000000000010 1
#14
0#
b0000000000000000000000000001001010110011 &
b0000000000000000000000000001001010110010 ,
#15
1#
b00000000000000000000000000000011 1
#16
0#
b0000000000000000000000000001001011000101 &
b0000000000000000000000000001001011000100 ,
#17
1#
b00000000000000000000000000000100 1
